src/rca_4bit.vcd
$date
	Tue Jun 23 14:26:46 2026
$end
$version
	Icarus Verilog
$end
$timescale
	1ps
$end
$scope module rca_4bit_tb $end
$var wire 4 ! sum [3:0] $end
$var wire 5 " expected_sum [4:0] $end
$var wire 1 # cout $end
$var reg 4 $ a [3:0] $end
$var reg 4 % b [3:0] $end
$var reg 1 & cin $end
$var integer 32 ' errors [31:0] $end
$var integer 32 ( i [31:0] $end
$var integer 32 ) j [31:0] $end
$var integer 32 * k [31:0] $end
$scope module uut $end
$var wire 4 + a [3:0] $end
$var wire 4 , b [3:0] $end
$var wire 1 & cin $end
$var wire 4 - sum [3:0] $end
$var wire 1 # cout $end
$var wire 1 . c3 $end
$var wire 1 / c2 $end
$var wire 1 0 c1 $end
$scope module fa0 $end
$var wire 1 1 a $end
$var wire 1 2 b $end
$var wire 1 & cin $end
$var wire 1 3 sum $end
$var wire 1 0 cout $end
$upscope $end
$scope module fa1 $end
$var wire 1 4 a $end
$var wire 1 5 b $end
$var wire 1 0 cin $end
$var wire 1 6 sum $end
$var wire 1 / cout $end
$upscope $end
$scope module fa2 $end
$var wire 1 7 a $end
$var wire 1 8 b $end
$var wire 1 / cin $end
$var wire 1 9 sum $end
$var wire 1 . cout $end
$upscope $end
$scope module fa3 $end
$var wire 1 : a $end
$var wire 1 ; b $end
$var wire 1 . cin $end
$var wire 1 < sum $end
$var wire 1 # cout $end
$upscope $end
$upscope $end
$upscope $end
$enddefinitions $end
$comment Show the parameter values. $end
$dumpall
$end
#0
$dumpvars
0<
0;
0:
09
08
07
06
05
04
03
02
01
00
0/
0.
b0 -
b0 ,
b0 +
b0 *
b0 )
b0 (
b0 '
0&
b0 %
b0 $
0#
b0 "
b0 !
$end
#10000
b1 !
b1 -
13
12
b1 "
b1 %
b1 ,
b1 )
#20000
03
b10 !
b10 -
16
02
15
b10 "
b10 %
b10 ,
b10 )
#30000
b11 !
b11 -
13
12
b11 "
b11 %
b11 ,
b11 )
#40000
03
06
b100 !
b100 -
19
02
05
18
b100 "
b100 %
b100 ,
b100 )
#50000
b101 !
b101 -
13
12
b101 "
b101 %
b101 ,
b101 )
#60000
03
b110 !
b110 -
16
02
15
b110 "
b110 %
b110 ,
b110 )
#70000
b111 !
b111 -
13
12
b111 "
b111 %
b111 ,
b111 )
#80000
03
06
09
b1000 !
b1000 -
1<
02
05
08
1;
b1000 "
b1000 %
b1000 ,
b1000 )
#90000
b1001 !
b1001 -
13
12
b1001 "
b1001 %
b1001 ,
b1001 )
#100000
03
b1010 !
b1010 -
16
02
15
b1010 "
b1010 %
b1010 ,
b1010 )
#110000
b1011 !
b1011 -
13
12
b1011 "
b1011 %
b1011 ,
b1011 )
#120000
03
06
b1100 !
b1100 -
19
02
05
18
b1100 "
b1100 %
b1100 ,
b1100 )
#130000
b1101 !
b1101 -
13
12
b1101 "
b1101 %
b1101 ,
b1101 )
#140000
03
b1110 !
b1110 -
16
02
15
b1110 "
b1110 %
b1110 ,
b1110 )
#150000
b1111 !
b1111 -
13
12
b1111 "
b1111 %
b1111 ,
b1111 )
#160000
06
09
b1 !
b1 -
0<
02
05
08
0;
11
b0 %
b0 ,
b1 "
b1 $
b1 +
b1 (
b0 )
#170000
16
b10 !
b10 -
03
10
12
b10 "
b1 %
b1 ,
b1 )
#180000
09
13
00
b11 !
b11 -
16
0/
02
15
b11 "
b10 %
b10 ,
b10 )
#190000
19
06
1/
b100 !
b100 -
03
10
12
b100 "
b11 %
b11 ,
b11 )
#200000
0<
13
00
06
0/
b101 !
b101 -
19
0.
02
05
18
b101 "
b100 %
b100 ,
b100 )
#210000
16
b110 !
b110 -
03
10
12
b110 "
b101 %
b101 ,
b101 )
#220000
0<
19
0.
13
00
b111 !
b111 -
16
0/
02
15
b111 "
b110 %
b110 ,
b110 )
#230000
1<
09
1.
06
1/
b1000 !
b1000 -
03
10
12
b1000 "
b111 %
b111 ,
b111 )
#240000
13
00
06
0/
09
0.
b1001 !
b1001 -
1<
0#
02
05
08
1;
b1001 "
b1000 %
b1000 ,
b1000 )
#250000
16
b1010 !
b1010 -
03
10
12
b1010 "
b1001 %
b1001 ,
b1001 )
#260000
09
13
00
b1011 !
b1011 -
16
0/
02
15
b1011 "
b1010 %
b1010 ,
b1010 )
#270000
19
06
1/
b1100 !
b1100 -
03
10
12
b1100 "
b1011 %
b1011 ,
b1011 )
#280000
1<
0#
13
00
06
0/
b1101 !
b1101 -
19
0.
02
05
18
b1101 "
b1100 %
b1100 ,
b1100 )
#290000
16
b1110 !
b1110 -
03
10
12
b1110 "
b1101 %
b1101 ,
b1101 )
#300000
1<
0#
19
0.
13
00
b1111 !
b1111 -
16
0/
02
15
b1111 "
b1110 %
b1110 ,
b1110 )
#310000
0<
1#
09
1.
06
1/
b0 !
b0 -
03
10
12
b10000 "
b1111 %
b1111 ,
b1111 )
#320000
16
0/
09
0.
b10 !
b10 -
0<
0#
00
02
05
08
0;
01
14
b0 %
b0 ,
b10 "
b10 $
b10 +
b10 (
b0 )
#330000
b11 !
b11 -
13
12
b11 "
b1 %
b1 ,
b1 )
#340000
19
03
b100 !
b100 -
06
1/
02
15
b100 "
b10 %
b10 ,
b10 )
#350000
b101 !
b101 -
13
12
b101 "
b11 %
b11 ,
b11 )
#360000
0<
03
16
0/
b110 !
b110 -
19
0.
02
05
18
b110 "
b100 %
b100 ,
b100 )
#370000
b111 !
b111 -
13
12
b111 "
b101 %
b101 ,
b101 )
#380000
1<
09
1.
03
b1000 !
b1000 -
06
1/
02
15
b1000 "
b110 %
b110 ,
b110 )
#390000
b1001 !
b1001 -
13
12
b1001 "
b111 %
b111 ,
b111 )
#400000
03
16
0/
09
0.
b1010 !
b1010 -
1<
0#
02
05
08
1;
b1010 "
b1000 %
b1000 ,
b1000 )
#410000
b1011 !
b1011 -
13
12
b1011 "
b1001 %
b1001 ,
b1001 )
#420000
19
03
b1100 !
b1100 -
06
1/
02
15
b1100 "
b1010 %
b1010 ,
b1010 )
#430000
b1101 !
b1101 -
13
12
b1101 "
b1011 %
b1011 ,
b1011 )
#440000
1<
0#
03
16
0/
b1110 !
b1110 -
19
0.
02
05
18
b1110 "
b1100 %
b1100 ,
b1100 )
#450000
b1111 !
b1111 -
13
12
b1111 "
b1101 %
b1101 ,
b1101 )
#460000
0<
1#
09
1.
03
b0 !
b0 -
06
1/
02
15
b10000 "
b1110 %
b1110 ,
b1110 )
#470000
b1 !
b1 -
13
12
b10001 "
b1111 %
b1111 ,
b1111 )
#480000
16
0/
09
0.
b11 !
b11 -
0<
0#
02
05
08
0;
11
b0 %
b0 ,
b11 "
b11 $
b11 +
b11 (
b0 )
#490000
19
06
1/
b100 !
b100 -
03
10
12
b100 "
b1 %
b1 ,
b1 )
#500000
13
00
b101 !
b101 -
06
02
15
b101 "
b10 %
b10 ,
b10 )
#510000
16
b110 !
b110 -
03
10
12
b110 "
b11 %
b11 ,
b11 )
#520000
0/
0<
13
00
16
b111 !
b111 -
19
0.
02
05
18
b111 "
b100 %
b100 ,
b100 )
#530000
1<
09
1.
06
1/
b1000 !
b1000 -
03
10
12
b1000 "
b101 %
b101 ,
b101 )
#540000
13
00
b1001 !
b1001 -
06
02
15
b1001 "
b110 %
b110 ,
b110 )
#550000
16
b1010 !
b1010 -
03
10
12
b1010 "
b111 %
b111 ,
b111 )
#560000
0/
13
00
16
09
0.
b1011 !
b1011 -
1<
0#
02
05
08
1;
b1011 "
b1000 %
b1000 ,
b1000 )
#570000
19
06
1/
b1100 !
b1100 -
03
10
12
b1100 "
b1001 %
b1001 ,
b1001 )
#580000
13
00
b1101 !
b1101 -
06
02
15
b1101 "
b1010 %
b1010 ,
b1010 )
#590000
16
b1110 !
b1110 -
03
10
12
b1110 "
b1011 %
b1011 ,
b1011 )
#600000
0/
1<
0#
13
00
16
b1111 !
b1111 -
19
0.
02
05
18
b1111 "
b1100 %
b1100 ,
b1100 )
#610000
0<
1#
09
1.
06
1/
b0 !
b0 -
03
10
12
b10000 "
b1101 %
b1101 ,
b1101 )
#620000
13
00
b1 !
b1 -
06
02
15
b10001 "
b1110 %
b1110 ,
b1110 )
#630000
16
b10 !
b10 -
03
10
12
b10010 "
b1111 %
b1111 ,
b1111 )
#640000
19
0.
06
0/
b100 !
b100 -
0<
0#
00
02
05
08
0;
01
04
17
b0 %
b0 ,
b100 "
b100 $
b100 +
b100 (
b0 )
#650000
b101 !
b101 -
13
12
b101 "
b1 %
b1 ,
b1 )
#660000
03
b110 !
b110 -
16
02
15
b110 "
b10 %
b10 ,
b10 )
#670000
b111 !
b111 -
13
12
b111 "
b11 %
b11 ,
b11 )
#680000
1<
03
06
b1000 !
b1000 -
09
1.
02
05
18
b1000 "
b100 %
b100 ,
b100 )
#690000
b1001 !
b1001 -
13
12
b1001 "
b101 %
b101 ,
b101 )
#700000
03
b1010 !
b1010 -
16
02
15
b1010 "
b110 %
b110 ,
b110 )
#710000
b1011 !
b1011 -
13
12
b1011 "
b111 %
b111 ,
b111 )
#720000
03
06
19
0.
b1100 !
b1100 -
1<
0#
02
05
08
1;
b1100 "
b1000 %
b1000 ,
b1000 )
#730000
b1101 !
b1101 -
13
12
b1101 "
b1001 %
b1001 ,
b1001 )
#740000
03
b1110 !
b1110 -
16
02
15
b1110 "
b1010 %
b1010 ,
b1010 )
#750000
b1111 !
b1111 -
13
12
b1111 "
b1011 %
b1011 ,
b1011 )
#760000
0<
1#
03
06
b0 !
b0 -
09
1.
02
05
18
b10000 "
b1100 %
b1100 ,
b1100 )
#770000
b1 !
b1 -
13
12
b10001 "
b1101 %
b1101 ,
b1101 )
#780000
03
b10 !
b10 -
16
02
15
b10010 "
b1110 %
b1110 ,
b1110 )
#790000
b11 !
b11 -
13
12
b10011 "
b1111 %
b1111 ,
b1111 )
#800000
06
19
0.
b101 !
b101 -
0<
0#
02
05
08
0;
11
b0 %
b0 ,
b101 "
b101 $
b101 +
b101 (
b0 )
#810000
16
b110 !
b110 -
03
10
12
b110 "
b1 %
b1 ,
b1 )
#820000
0<
19
0.
13
00
b111 !
b111 -
16
0/
02
15
b111 "
b10 %
b10 ,
b10 )
#830000
1<
09
1.
06
1/
b1000 !
b1000 -
03
10
12
b1000 "
b11 %
b11 ,
b11 )
#840000
13
00
06
0/
b1001 !
b1001 -
09
02
05
18
b1001 "
b100 %
b100 ,
b100 )
#850000
16
b1010 !
b1010 -
03
10
12
b1010 "
b101 %
b101 ,
b101 )
#860000
09
13
00
b1011 !
b1011 -
16
0/
02
15
b1011 "
b110 %
b110 ,
b110 )
#870000
19
06
1/
b1100 !
b1100 -
03
10
12
b1100 "
b111 %
b111 ,
b111 )
#880000
0.
13
00
06
0/
19
b1101 !
b1101 -
1<
0#
02
05
08
1;
b1101 "
b1000 %
b1000 ,
b1000 )
#890000
16
b1110 !
b1110 -
03
10
12
b1110 "
b1001 %
b1001 ,
b1001 )
#900000
1<
0#
19
0.
13
00
b1111 !
b1111 -
16
0/
02
15
b1111 "
b1010 %
b1010 ,
b1010 )
#910000
0<
1#
09
1.
06
1/
b0 !
b0 -
03
10
12
b10000 "
b1011 %
b1011 ,
b1011 )
#920000
13
00
06
0/
b1 !
b1 -
09
02
05
18
b10001 "
b1100 %
b1100 ,
b1100 )
#930000
16
b10 !
b10 -
03
10
12
b10010 "
b1101 %
b1101 ,
b1101 )
#940000
09
13
00
b11 !
b11 -
16
0/
02
15
b10011 "
b1110 %
b1110 ,
b1110 )
#950000
19
06
1/
b100 !
b100 -
03
10
12
b10100 "
b1111 %
b1111 ,
b1111 )
#960000
0.
16
0/
19
b110 !
b110 -
0<
0#
00
02
05
08
0;
01
14
b0 %
b0 ,
b110 "
b110 $
b110 +
b110 (
b0 )
#970000
b111 !
b111 -
13
12
b111 "
b1 %
b1 ,
b1 )
#980000
1<
09
1.
03
b1000 !
b1000 -
06
1/
02
15
b1000 "
b10 %
b10 ,
b10 )
#990000
b1001 !
b1001 -
13
12
b1001 "
b11 %
b11 ,
b11 )
#1000000
03
16
0/
b1010 !
b1010 -
09
02
05
18
b1010 "
b100 %
b100 ,
b100 )
#1010000
b1011 !
b1011 -
13
12
b1011 "
b101 %
b101 ,
b101 )
#1020000
19
03
b1100 !
b1100 -
06
1/
02
15
b1100 "
b110 %
b110 ,
b110 )
#1030000
b1101 !
b1101 -
13
12
b1101 "
b111 %
b111 ,
b111 )
#1040000
0.
03
16
0/
19
b1110 !
b1110 -
1<
0#
02
05
08
1;
b1110 "
b1000 %
b1000 ,
b1000 )
#1050000
b1111 !
b1111 -
13
12
b1111 "
b1001 %
b1001 ,
b1001 )
#1060000
0<
1#
09
1.
03
b0 !
b0 -
06
1/
02
15
b10000 "
b1010 %
b1010 ,
b1010 )
#1070000
b1 !
b1 -
13
12
b10001 "
b1011 %
b1011 ,
b1011 )
#1080000
03
16
0/
b10 !
b10 -
09
02
05
18
b10010 "
b1100 %
b1100 ,
b1100 )
#1090000
b11 !
b11 -
13
12
b10011 "
b1101 %
b1101 ,
b1101 )
#1100000
19
03
b100 !
b100 -
06
1/
02
15
b10100 "
b1110 %
b1110 ,
b1110 )
#1110000
b101 !
b101 -
13
12
b10101 "
b1111 %
b1111 ,
b1111 )
#1120000
0.
16
0/
19
b111 !
b111 -
0<
0#
02
05
08
0;
11
b0 %
b0 ,
b111 "
b111 $
b111 +
b111 (
b0 )
#1130000
1<
09
1.
06
1/
b1000 !
b1000 -
03
10
12
b1000 "
b1 %
b1 ,
b1 )
#1140000
13
00
b1001 !
b1001 -
06
02
15
b1001 "
b10 %
b10 ,
b10 )
#1150000
16
b1010 !
b1010 -
03
10
12
b1010 "
b11 %
b11 ,
b11 )
#1160000
0/
13
00
16
b1011 !
b1011 -
09
02
05
18
b1011 "
b100 %
b100 ,
b100 )
#1170000
19
06
1/
b1100 !
b1100 -
03
10
12
b1100 "
b101 %
b101 ,
b101 )
#1180000
13
00
b1101 !
b1101 -
06
02
15
b1101 "
b110 %
b110 ,
b110 )
#1190000
16
b1110 !
b1110 -
03
10
12
b1110 "
b111 %
b111 ,
b111 )
#1200000
0.
0/
13
00
16
19
b1111 !
b1111 -
1<
0#
02
05
08
1;
b1111 "
b1000 %
b1000 ,
b1000 )
#1210000
0<
1#
09
1.
06
1/
b0 !
b0 -
03
10
12
b10000 "
b1001 %
b1001 ,
b1001 )
#1220000
13
00
b1 !
b1 -
06
02
15
b10001 "
b1010 %
b1010 ,
b1010 )
#1230000
16
b10 !
b10 -
03
10
12
b10010 "
b1011 %
b1011 ,
b1011 )
#1240000
0/
13
00
16
b11 !
b11 -
09
02
05
18
b10011 "
b1100 %
b1100 ,
b1100 )
#1250000
19
06
1/
b100 !
b100 -
03
10
12
b10100 "
b1101 %
b1101 ,
b1101 )
#1260000
13
00
b101 !
b101 -
06
02
15
b10101 "
b1110 %
b1110 ,
b1110 )
#1270000
16
b110 !
b110 -
03
10
12
b10110 "
b1111 %
b1111 ,
b1111 )
#1280000
09
1<
0#
b1000 !
b1000 -
06
0/
0.
00
02
05
08
0;
01
04
07
1:
b0 %
b0 ,
b1000 "
b1000 $
b1000 +
b1000 (
b0 )
#1290000
b1001 !
b1001 -
13
12
b1001 "
b1 %
b1 ,
b1 )
#1300000
03
b1010 !
b1010 -
16
02
15
b1010 "
b10 %
b10 ,
b10 )
#1310000
b1011 !
b1011 -
13
12
b1011 "
b11 %
b11 ,
b11 )
#1320000
03
06
b1100 !
b1100 -
19
02
05
18
b1100 "
b100 %
b100 ,
b100 )
#1330000
b1101 !
b1101 -
13
12
b1101 "
b101 %
b101 ,
b101 )
#1340000
03
b1110 !
b1110 -
16
02
15
b1110 "
b110 %
b110 ,
b110 )
#1350000
b1111 !
b1111 -
13
12
b1111 "
b111 %
b111 ,
b111 )
#1360000
03
06
09
b0 !
b0 -
0<
1#
02
05
08
1;
b10000 "
b1000 %
b1000 ,
b1000 )
#1370000
b1 !
b1 -
13
12
b10001 "
b1001 %
b1001 ,
b1001 )
#1380000
03
b10 !
b10 -
16
02
15
b10010 "
b1010 %
b1010 ,
b1010 )
#1390000
b11 !
b11 -
13
12
b10011 "
b1011 %
b1011 ,
b1011 )
#1400000
03
06
b100 !
b100 -
19
02
05
18
b10100 "
b1100 %
b1100 ,
b1100 )
#1410000
b101 !
b101 -
13
12
b10101 "
b1101 %
b1101 ,
b1101 )
#1420000
03
b110 !
b110 -
16
02
15
b10110 "
b1110 %
b1110 ,
b1110 )
#1430000
b111 !
b111 -
13
12
b10111 "
b1111 %
b1111 ,
b1111 )
#1440000
06
09
b1001 !
b1001 -
1<
0#
02
05
08
0;
11
b0 %
b0 ,
b1001 "
b1001 $
b1001 +
b1001 (
b0 )
#1450000
16
b1010 !
b1010 -
03
10
12
b1010 "
b1 %
b1 ,
b1 )
#1460000
09
13
00
b1011 !
b1011 -
16
0/
02
15
b1011 "
b10 %
b10 ,
b10 )
#1470000
19
06
1/
b1100 !
b1100 -
03
10
12
b1100 "
b11 %
b11 ,
b11 )
#1480000
1<
0#
13
00
06
0/
b1101 !
b1101 -
19
0.
02
05
18
b1101 "
b100 %
b100 ,
b100 )
#1490000
16
b1110 !
b1110 -
03
10
12
b1110 "
b101 %
b101 ,
b101 )
#1500000
1<
0#
19
0.
13
00
b1111 !
b1111 -
16
0/
02
15
b1111 "
b110 %
b110 ,
b110 )
#1510000
0<
1#
09
1.
06
1/
b0 !
b0 -
03
10
12
b10000 "
b111 %
b111 ,
b111 )
#1520000
13
00
06
0/
09
0.
b1 !
b1 -
0<
02
05
08
1;
b10001 "
b1000 %
b1000 ,
b1000 )
#1530000
16
b10 !
b10 -
03
10
12
b10010 "
b1001 %
b1001 ,
b1001 )
#1540000
09
13
00
b11 !
b11 -
16
0/
02
15
b10011 "
b1010 %
b1010 ,
b1010 )
#1550000
19
06
1/
b100 !
b100 -
03
10
12
b10100 "
b1011 %
b1011 ,
b1011 )
#1560000
0<
13
00
06
0/
b101 !
b101 -
19
0.
02
05
18
b10101 "
b1100 %
b1100 ,
b1100 )
#1570000
16
b110 !
b110 -
03
10
12
b10110 "
b1101 %
b1101 ,
b1101 )
#1580000
0<
19
0.
13
00
b111 !
b111 -
16
0/
02
15
b10111 "
b1110 %
b1110 ,
b1110 )
#1590000
1<
09
1.
06
1/
b1000 !
b1000 -
03
10
12
b11000 "
b1111 %
b1111 ,
b1111 )
#1600000
0#
16
0/
09
0.
b1010 !
b1010 -
1<
00
02
05
08
0;
01
14
b0 %
b0 ,
b1010 "
b1010 $
b1010 +
b1010 (
b0 )
#1610000
b1011 !
b1011 -
13
12
b1011 "
b1 %
b1 ,
b1 )
#1620000
19
03
b1100 !
b1100 -
06
1/
02
15
b1100 "
b10 %
b10 ,
b10 )
#1630000
b1101 !
b1101 -
13
12
b1101 "
b11 %
b11 ,
b11 )
#1640000
1<
0#
03
16
0/
b1110 !
b1110 -
19
0.
02
05
18
b1110 "
b100 %
b100 ,
b100 )
#1650000
b1111 !
b1111 -
13
12
b1111 "
b101 %
b101 ,
b101 )
#1660000
0<
1#
09
1.
03
b0 !
b0 -
06
1/
02
15
b10000 "
b110 %
b110 ,
b110 )
#1670000
b1 !
b1 -
13
12
b10001 "
b111 %
b111 ,
b111 )
#1680000
03
16
0/
09
0.
b10 !
b10 -
0<
02
05
08
1;
b10010 "
b1000 %
b1000 ,
b1000 )
#1690000
b11 !
b11 -
13
12
b10011 "
b1001 %
b1001 ,
b1001 )
#1700000
19
03
b100 !
b100 -
06
1/
02
15
b10100 "
b1010 %
b1010 ,
b1010 )
#1710000
b101 !
b101 -
13
12
b10101 "
b1011 %
b1011 ,
b1011 )
#1720000
0<
03
16
0/
b110 !
b110 -
19
0.
02
05
18
b10110 "
b1100 %
b1100 ,
b1100 )
#1730000
b111 !
b111 -
13
12
b10111 "
b1101 %
b1101 ,
b1101 )
#1740000
1<
09
1.
03
b1000 !
b1000 -
06
1/
02
15
b11000 "
b1110 %
b1110 ,
b1110 )
#1750000
b1001 !
b1001 -
13
12
b11001 "
b1111 %
b1111 ,
b1111 )
#1760000
0#
16
0/
09
0.
b1011 !
b1011 -
1<
02
05
08
0;
11
b0 %
b0 ,
b1011 "
b1011 $
b1011 +
b1011 (
b0 )
#1770000
19
06
1/
b1100 !
b1100 -
03
10
12
b1100 "
b1 %
b1 ,
b1 )
#1780000
13
00
b1101 !
b1101 -
06
02
15
b1101 "
b10 %
b10 ,
b10 )
#1790000
16
b1110 !
b1110 -
03
10
12
b1110 "
b11 %
b11 ,
b11 )
#1800000
0/
1<
0#
13
00
16
b1111 !
b1111 -
19
0.
02
05
18
b1111 "
b100 %
b100 ,
b100 )
#1810000
0<
1#
09
1.
06
1/
b0 !
b0 -
03
10
12
b10000 "
b101 %
b101 ,
b101 )
#1820000
13
00
b1 !
b1 -
06
02
15
b10001 "
b110 %
b110 ,
b110 )
#1830000
16
b10 !
b10 -
03
10
12
b10010 "
b111 %
b111 ,
b111 )
#1840000
0/
13
00
16
09
0.
b11 !
b11 -
0<
02
05
08
1;
b10011 "
b1000 %
b1000 ,
b1000 )
#1850000
19
06
1/
b100 !
b100 -
03
10
12
b10100 "
b1001 %
b1001 ,
b1001 )
#1860000
13
00
b101 !
b101 -
06
02
15
b10101 "
b1010 %
b1010 ,
b1010 )
#1870000
16
b110 !
b110 -
03
10
12
b10110 "
b1011 %
b1011 ,
b1011 )
#1880000
0/
0<
13
00
16
b111 !
b111 -
19
0.
02
05
18
b10111 "
b1100 %
b1100 ,
b1100 )
#1890000
1<
09
1.
06
1/
b1000 !
b1000 -
03
10
12
b11000 "
b1101 %
b1101 ,
b1101 )
#1900000
13
00
b1001 !
b1001 -
06
02
15
b11001 "
b1110 %
b1110 ,
b1110 )
#1910000
16
b1010 !
b1010 -
03
10
12
b11010 "
b1111 %
b1111 ,
b1111 )
#1920000
0#
19
0.
06
0/
b1100 !
b1100 -
1<
00
02
05
08
0;
01
04
17
b0 %
b0 ,
b1100 "
b1100 $
b1100 +
b1100 (
b0 )
#1930000
b1101 !
b1101 -
13
12
b1101 "
b1 %
b1 ,
b1 )
#1940000
03
b1110 !
b1110 -
16
02
15
b1110 "
b10 %
b10 ,
b10 )
#1950000
b1111 !
b1111 -
13
12
b1111 "
b11 %
b11 ,
b11 )
#1960000
0<
1#
03
06
b0 !
b0 -
09
1.
02
05
18
b10000 "
b100 %
b100 ,
b100 )
#1970000
b1 !
b1 -
13
12
b10001 "
b101 %
b101 ,
b101 )
#1980000
03
b10 !
b10 -
16
02
15
b10010 "
b110 %
b110 ,
b110 )
#1990000
b11 !
b11 -
13
12
b10011 "
b111 %
b111 ,
b111 )
#2000000
03
06
19
0.
b100 !
b100 -
0<
02
05
08
1;
b10100 "
b1000 %
b1000 ,
b1000 )
#2010000
b101 !
b101 -
13
12
b10101 "
b1001 %
b1001 ,
b1001 )
#2020000
03
b110 !
b110 -
16
02
15
b10110 "
b1010 %
b1010 ,
b1010 )
#2030000
b111 !
b111 -
13
12
b10111 "
b1011 %
b1011 ,
b1011 )
#2040000
1<
03
06
b1000 !
b1000 -
09
1.
02
05
18
b11000 "
b1100 %
b1100 ,
b1100 )
#2050000
b1001 !
b1001 -
13
12
b11001 "
b1101 %
b1101 ,
b1101 )
#2060000
03
b1010 !
b1010 -
16
02
15
b11010 "
b1110 %
b1110 ,
b1110 )
#2070000
b1011 !
b1011 -
13
12
b11011 "
b1111 %
b1111 ,
b1111 )
#2080000
0#
06
19
0.
b1101 !
b1101 -
1<
02
05
08
0;
11
b0 %
b0 ,
b1101 "
b1101 $
b1101 +
b1101 (
b0 )
#2090000
16
b1110 !
b1110 -
03
10
12
b1110 "
b1 %
b1 ,
b1 )
#2100000
1<
0#
19
0.
13
00
b1111 !
b1111 -
16
0/
02
15
b1111 "
b10 %
b10 ,
b10 )
#2110000
0<
1#
09
1.
06
1/
b0 !
b0 -
03
10
12
b10000 "
b11 %
b11 ,
b11 )
#2120000
13
00
06
0/
b1 !
b1 -
09
02
05
18
b10001 "
b100 %
b100 ,
b100 )
#2130000
16
b10 !
b10 -
03
10
12
b10010 "
b101 %
b101 ,
b101 )
#2140000
09
13
00
b11 !
b11 -
16
0/
02
15
b10011 "
b110 %
b110 ,
b110 )
#2150000
19
06
1/
b100 !
b100 -
03
10
12
b10100 "
b111 %
b111 ,
b111 )
#2160000
0.
13
00
06
0/
19
b101 !
b101 -
0<
02
05
08
1;
b10101 "
b1000 %
b1000 ,
b1000 )
#2170000
16
b110 !
b110 -
03
10
12
b10110 "
b1001 %
b1001 ,
b1001 )
#2180000
0<
19
0.
13
00
b111 !
b111 -
16
0/
02
15
b10111 "
b1010 %
b1010 ,
b1010 )
#2190000
1<
09
1.
06
1/
b1000 !
b1000 -
03
10
12
b11000 "
b1011 %
b1011 ,
b1011 )
#2200000
13
00
06
0/
b1001 !
b1001 -
09
02
05
18
b11001 "
b1100 %
b1100 ,
b1100 )
#2210000
16
b1010 !
b1010 -
03
10
12
b11010 "
b1101 %
b1101 ,
b1101 )
#2220000
09
13
00
b1011 !
b1011 -
16
0/
02
15
b11011 "
b1110 %
b1110 ,
b1110 )
#2230000
19
06
1/
b1100 !
b1100 -
03
10
12
b11100 "
b1111 %
b1111 ,
b1111 )
#2240000
0#
0.
16
0/
19
b1110 !
b1110 -
1<
00
02
05
08
0;
01
14
b0 %
b0 ,
b1110 "
b1110 $
b1110 +
b1110 (
b0 )
#2250000
b1111 !
b1111 -
13
12
b1111 "
b1 %
b1 ,
b1 )
#2260000
0<
1#
09
1.
03
b0 !
b0 -
06
1/
02
15
b10000 "
b10 %
b10 ,
b10 )
#2270000
b1 !
b1 -
13
12
b10001 "
b11 %
b11 ,
b11 )
#2280000
03
16
0/
b10 !
b10 -
09
02
05
18
b10010 "
b100 %
b100 ,
b100 )
#2290000
b11 !
b11 -
13
12
b10011 "
b101 %
b101 ,
b101 )
#2300000
19
03
b100 !
b100 -
06
1/
02
15
b10100 "
b110 %
b110 ,
b110 )
#2310000
b101 !
b101 -
13
12
b10101 "
b111 %
b111 ,
b111 )
#2320000
0.
03
16
0/
19
b110 !
b110 -
0<
02
05
08
1;
b10110 "
b1000 %
b1000 ,
b1000 )
#2330000
b111 !
b111 -
13
12
b10111 "
b1001 %
b1001 ,
b1001 )
#2340000
1<
09
1.
03
b1000 !
b1000 -
06
1/
02
15
b11000 "
b1010 %
b1010 ,
b1010 )
#2350000
b1001 !
b1001 -
13
12
b11001 "
b1011 %
b1011 ,
b1011 )
#2360000
03
16
0/
b1010 !
b1010 -
09
02
05
18
b11010 "
b1100 %
b1100 ,
b1100 )
#2370000
b1011 !
b1011 -
13
12
b11011 "
b1101 %
b1101 ,
b1101 )
#2380000
19
03
b1100 !
b1100 -
06
1/
02
15
b11100 "
b1110 %
b1110 ,
b1110 )
#2390000
b1101 !
b1101 -
13
12
b11101 "
b1111 %
b1111 ,
b1111 )
#2400000
0#
0.
16
0/
19
b1111 !
b1111 -
1<
02
05
08
0;
11
b0 %
b0 ,
b1111 "
b1111 $
b1111 +
b1111 (
b0 )
#2410000
0<
1#
09
1.
06
1/
b0 !
b0 -
03
10
12
b10000 "
b1 %
b1 ,
b1 )
#2420000
13
00
b1 !
b1 -
06
02
15
b10001 "
b10 %
b10 ,
b10 )
#2430000
16
b10 !
b10 -
03
10
12
b10010 "
b11 %
b11 ,
b11 )
#2440000
0/
13
00
16
b11 !
b11 -
09
02
05
18
b10011 "
b100 %
b100 ,
b100 )
#2450000
19
06
1/
b100 !
b100 -
03
10
12
b10100 "
b101 %
b101 ,
b101 )
#2460000
13
00
b101 !
b101 -
06
02
15
b10101 "
b110 %
b110 ,
b110 )
#2470000
16
b110 !
b110 -
03
10
12
b10110 "
b111 %
b111 ,
b111 )
#2480000
0.
0/
13
00
16
19
b111 !
b111 -
0<
02
05
08
1;
b10111 "
b1000 %
b1000 ,
b1000 )
#2490000
1<
09
1.
06
1/
b1000 !
b1000 -
03
10
12
b11000 "
b1001 %
b1001 ,
b1001 )
#2500000
13
00
b1001 !
b1001 -
06
02
15
b11001 "
b1010 %
b1010 ,
b1010 )
#2510000
16
b1010 !
b1010 -
03
10
12
b11010 "
b1011 %
b1011 ,
b1011 )
#2520000
0/
13
00
16
b1011 !
b1011 -
09
02
05
18
b11011 "
b1100 %
b1100 ,
b1100 )
#2530000
19
06
1/
b1100 !
b1100 -
03
10
12
b11100 "
b1101 %
b1101 ,
b1101 )
#2540000
13
00
b1101 !
b1101 -
06
02
15
b11101 "
b1110 %
b1110 ,
b1110 )
#2550000
16
b1110 !
b1110 -
03
10
12
b11110 "
b1111 %
b1111 ,
b1111 )
#2560000
06
09
0<
00
0/
0.
0#
02
05
08
0;
01
04
07
0:
b1 !
b1 -
13
b0 %
b0 ,
b0 $
b0 +
b1 "
1&
b1 *
b0 (
b0 )
#2570000
16
b10 !
b10 -
03
10
12
b10 "
b1 %
b1 ,
b1 )
#2580000
09
13
00
b11 !
b11 -
16
0/
02
15
b11 "
b10 %
b10 ,
b10 )
#2590000
19
06
1/
b100 !
b100 -
03
10
12
b100 "
b11 %
b11 ,
b11 )
#2600000
0<
13
00
06
0/
b101 !
b101 -
19
0.
02
05
18
b101 "
b100 %
b100 ,
b100 )
#2610000
16
b110 !
b110 -
03
10
12
b110 "
b101 %
b101 ,
b101 )
#2620000
0<
19
0.
13
00
b111 !
b111 -
16
0/
02
15
b111 "
b110 %
b110 ,
b110 )
#2630000
1<
09
1.
06
1/
b1000 !
b1000 -
03
10
12
b1000 "
b111 %
b111 ,
b111 )
#2640000
13
00
06
0/
09
0.
b1001 !
b1001 -
1<
0#
02
05
08
1;
b1001 "
b1000 %
b1000 ,
b1000 )
#2650000
16
b1010 !
b1010 -
03
10
12
b1010 "
b1001 %
b1001 ,
b1001 )
